{
  "status": 200,
  "data": {
    "caseEntry": [],
    "marketAuthorization": null,
    "clinicalTrial": null,
    "productDistribution": null,
    "summaryTabulationCt":  [
        {
            "systemOrganClass": "Blood and lymphatic system disorders; Blood and lymphatic system disorders",
            "preferredTerm": "Lymphadenitis + Haemorrhagic disease of newborn",
            "ct1ip": 1,
            "ct2ip": 0,
            "ct2ac": 0,
            "ct3ip": 0,
            "boosterip": 0,
            "pms": 0
        }
    ],
    "summaryTabulationMarket": [
        {
            "systemOrganClass": "Blood and lymphatic system disorders; Blood and lymphatic system disorders",
            "preferredTerm": "Lymphadenitis + Haemorrhagic disease of newborn",   
            "intervalSeriousUnsolicited": 0,
            "cumulativeSeriousUnsolicited": 0,
            "intervalNonSeriousUnsolicited": 0,
            "cumulativeNonSeriousUnsolicited": 0,
            "intervalSeriousSolicited": 1,
            "cumulativeSeriousSolicited": 1,
            "intervalNonSeriousSolicited": 0,
            "cumulativeNonSeriousSolicited": 0
        }
    ]
  },
  "message": "OK"
}
